{  
   "$schema":"http://json-schema.org/draft-06/schema#",
   "type":"object",
   "properties":{  
      "title":"Change to student enrolment form",
      "news category":"Announcements",
      "news published date":"1 June 2017",
      "news summary":"<div>The Department of Education is amending the student enrolment form for NSW public schools.<\/div>",
      "news thumbnail image":"/s3/buckets/edu-datamigration-poc-news/News/Images/ready-for-school-1200x900.jpg",
      "news content":"<div>The Department of Education is amending the student enrolment form for NSW public schools.<\/div><div><div>The amendments take into account legal advice, ensure consistency with the Government's position on this matter and address concerns with clarity.<\/div><div>The amended form includes references to both Special Religious Education and Special Education in Ethics.<\/div><div>Options for student participation in Special Religious Education and Special Education in Ethics vary from school to school.<\/div><div>Specific advice about these options is available from school principals.<\/div><div>The updated enrolment form will be made available to schools as soon as practicable<\/div><\/div>",
      "news contact name":"null",
      "news contact phone":"null",
      "news contact email":"null",
      "news show headline Y/N":"1",
      "news show summary Y/N":"1",
      "news show body Y/N":"1",
      "news show contact name Y/N":"1",
      "news show contact phone Y/N":"1",
      "news show contact email Y/N":"null",
      "news item linked internally":"<a href=\"https:\/\/pre.education.nsw.gov.au\/news\/announcements2\/change-to-student-enrolment-form\">Change to student enrolment form<\/a>",
      "news item linked through direct url":"",
      "news last updated date":"21 November 2017",
      "metadata properties":{  
         "DCTERMS title":"Change to student enrolment form | News",
         "DCTERMS subject":"News - \r\nNSW Department of Education",
         "DCTERMS publisher":"scheme=AGLSTERMS.AglsAgent ; corporateName=NSW Department of Education: News",
         "DCTERMS contact":"NSW Department of Education: News",
         "DCTERMS format":"html\/text",
         "DCTERMS rights":"\u00a9 Copyright News",
         "DCTERMS identifier":"null",
         "DCTERMS coverage":"Australia",
         "AGLSTERMS availability":"",
         "AGLSTERMS accessibility":"W3C",
         "DCTERMS type":"HTML",
         "DCTERMS audience":"All",
         "DCTERMS contenttype":"",
         "title":"Change to student enrolment form | News",
         "description":"Please update the page description via Settings > Template - Page > Page description",
         "keywords":"",
         "DCTERMS date created":"1 January 2015",
         "robots":"all",
         "News featured item":"yes",
         "AGLSTERMS protectiveMarking":"Unclassified",
         "security public":"yes"
      }
   }
}