{  
   "$schema":"http://json-schema.org/draft-06/schema#",
   "type":"object",
   "properties":{  
      "title":"Top dancers put their best foot forward Dani",
      "news category":"Announcements",
      "news published date":"19 February 2018",
      "news summary":"<p>Best of the best dancers to perform at Callback 2017.<\/p>",
      "news thumbnail image":"/s3/buckets/edu-datamigration-poc-news/News/Images/180228-danceworkshop2.jpg",
      "news content":"<p>Nineteen brilliant dancers are stepping out on stage with some of the best dancers from the 2017 Higher School Certificate Dance examinations at <a href=\"https:\/\/education.nsw.gov.au\/news\/latest-news\/top-dancers-put-their-best-foot-on-the-callback-stage\">Callback 2017<\/a> over the next two days.<\/p><p>Department of Education Secretary Mark Scott commended the dancers, drawn from a dozen regional and metropolitan schools, on being selected to showcase their exemplary performances and compositions to a wider audience in Callback 2017.<\/p><p>&ldquo;I&rsquo;m sure these amazing dancers will impress audiences in the way they impressed the HSC examiners,&rdquo; Mr Scott said.<\/p><p>&ldquo;To be selected to perform at Callback is a real accomplishment.<\/p><p>&ldquo;It is testimony to the dancers&rsquo; creativity, discipline and diligent devotion to countless hours of practice perfecting their dance.<\/p><p>&ldquo;The four performances will be a chance to display their dance talents in a professionally staged setting.<\/p><p>&ldquo;As they dance in Callback they will share their pride and joy with proud family and teachers who have supported their endeavours.<\/p><p>&ldquo;They will also give hundreds of prospective dance students in the audience something to aspire to when it is their time before the HSC examiners.&rdquo;<\/p><h2>Separate programs<\/h2><p>Mr Scott said Callback 2017 features two separate programs on Thursday and Friday, February 8 and 9 with evening and matinee performances on each day.<\/p><p>The matinees incorporate question and answer sessions with the Supervisor of Marking, HSC Dance offering students valuable insights into HSC dance and the commitment and preparation required for success.<\/p>",
      "news contact name":"null",
      "news contact phone":"null",
      "news contact email":"null",
      "news show headline Y/N":"1",
      "news show summary Y/N":"1",
      "news show body Y/N":"1",
      "news show contact name Y/N":"1",
      "news show contact phone Y/N":"1",
      "news show contact email Y/N":"null",
      "news item linked internally":"<a href=\"https:\/\/pre.education.nsw.gov.au\/news\/announcements2\/top-dancers-put-their-best-foot-forward-dani\">Top dancers put their best foot forward Dani<\/a>",
      "news item linked through direct url":"",
      "news last updated date":"1 January 2015",
      "metadata properties":{  
         "DCTERMS title":"Top dancers put their best foot forward Dani | News",
         "DCTERMS subject":"News - \r\nNSW Department of Education",
         "DCTERMS publisher":"scheme=AGLSTERMS.AglsAgent ; corporateName=NSW Department of Education: News",
         "DCTERMS contact":"NSW Department of Education: News",
         "DCTERMS format":"html\/text",
         "DCTERMS rights":"\u00a9 Copyright News",
         "DCTERMS identifier":"null",
         "DCTERMS coverage":"Australia",
         "AGLSTERMS availability":"",
         "AGLSTERMS accessibility":"W3C",
         "DCTERMS type":"HTML",
         "DCTERMS audience":"All",
         "DCTERMS contenttype":"",
         "title":"Top dancers put their best foot forward Dani | News",
         "description":"Top dancers to perform at Callback 2017.",
         "keywords":"Callback, Arts Unit, dance",
         "DCTERMS date created":"1 January 2015",
         "robots":"all",
         "News featured item":"no",
         "AGLSTERMS protectiveMarking":"Unclassified",
         "security public":"yes"
      }
   }
}