[
{
    "domain": ".education.nsw.gov.au",
    "expirationDate": 1584940638,
    "hostOnly": false,
    "httpOnly": false,
    "name": "nmstat",
    "path": "/",
    "sameSite": "unspecified",
    "secure": false,
    "session": false,
    "storeId": "0",
    "value": "1498540688993",
    "id": 1
},
{
    "domain": ".education.nsw.gov.au",
    "expirationDate": 1611461119,
    "hostOnly": false,
    "httpOnly": false,
    "name": "s_fid",
    "path": "/",
    "sameSite": "unspecified",
    "secure": false,
    "session": false,
    "storeId": "0",
    "value": "2CC122FDC17015FF-148A0EA418259967",
    "id": 2
},
{
    "domain": ".education.nsw.gov.au",
    "expirationDate": 1579838719,
    "hostOnly": false,
    "httpOnly": false,
    "name": "s_nr",
    "path": "/",
    "sameSite": "unspecified",
    "secure": false,
    "session": false,
    "storeId": "0",
    "value": "1548302719245-Repeat",
    "id": 3
},
{
    "domain": ".nsw.gov.au",
    "expirationDate": 1592657256,
    "hostOnly": false,
    "httpOnly": false,
    "name": "__gads",
    "path": "/",
    "sameSite": "unspecified",
    "secure": false,
    "session": false,
    "storeId": "0",
    "value": "ID=f084fab398d093ac:T=1529585256:S=ALNI_MYOtFBZ9eZswlIMsua0iUAMjv6ccA",
    "id": 4
},
{
    "domain": ".nsw.gov.au",
    "expirationDate": 1583112867,
    "hostOnly": false,
    "httpOnly": false,
    "name": "_fbp",
    "path": "/",
    "sameSite": "unspecified",
    "secure": false,
    "session": false,
    "storeId": "0",
    "value": "fb.2.1564546528469.1336623449",
    "id": 5
},
{
    "domain": ".nsw.gov.au",
    "expirationDate": 1638585966,
    "hostOnly": false,
    "httpOnly": false,
    "name": "_ga",
    "path": "/",
    "sameSite": "unspecified",
    "secure": false,
    "session": false,
    "storeId": "0",
    "value": "GA1.3.651389649.1498540638",
    "id": 6
},
{
    "domain": ".nsw.gov.au",
    "expirationDate": 1575514026,
    "hostOnly": false,
    "httpOnly": false,
    "name": "_gat_UA-73883229-1",
    "path": "/",
    "sameSite": "unspecified",
    "secure": false,
    "session": false,
    "storeId": "0",
    "value": "1",
    "id": 7
},
{
    "domain": ".nsw.gov.au",
    "expirationDate": 1580689735,
    "hostOnly": false,
    "httpOnly": false,
    "name": "_gcl_au",
    "path": "/",
    "sameSite": "unspecified",
    "secure": false,
    "session": false,
    "storeId": "0",
    "value": "1.1.1096463818.1572913735",
    "id": 8
},
{
    "domain": ".nsw.gov.au",
    "expirationDate": 1575600366,
    "hostOnly": false,
    "httpOnly": false,
    "name": "_gid",
    "path": "/",
    "sameSite": "unspecified",
    "secure": false,
    "session": false,
    "storeId": "0",
    "value": "GA1.3.648293211.1575248578",
    "id": 9
},
{
    "domain": ".nsw.gov.au",
    "expirationDate": 1596082528,
    "hostOnly": false,
    "httpOnly": false,
    "name": "_hjid",
    "path": "/",
    "sameSite": "unspecified",
    "secure": false,
    "session": false,
    "storeId": "0",
    "value": "db3e00da-5ea4-4bb0-befa-98ec6c7068c5",
    "id": 10
},
{
    "domain": ".nsw.gov.au",
    "expirationDate": 1611533962,
    "hostOnly": false,
    "httpOnly": false,
    "name": "s_fid",
    "path": "/",
    "sameSite": "unspecified",
    "secure": false,
    "session": false,
    "storeId": "0",
    "value": "2CC122FDC17015FF-148A0EA418259967",
    "id": 11
},
{
    "domain": ".nsw.gov.au",
    "expirationDate": 1579911562,
    "hostOnly": false,
    "httpOnly": false,
    "name": "s_nr",
    "path": "/",
    "sameSite": "unspecified",
    "secure": false,
    "session": false,
    "storeId": "0",
    "value": "1548375562982-Repeat",
    "id": 12
},
{
    "domain": "education.nsw.gov.au",
    "expirationDate": 1607645335,
    "hostOnly": true,
    "httpOnly": false,
    "name": "__atuvc",
    "path": "/",
    "sameSite": "unspecified",
    "secure": false,
    "session": false,
    "storeId": "0",
    "value": "1%7C42%2C1%7C43%2C0%7C44%2C2%7C45%2C1%7C46",
    "id": 13
},
{
    "domain": "education.nsw.gov.au",
    "hostOnly": true,
    "httpOnly": false,
    "name": "BIGipServer~linux~cmsvip.tg1_tcp80",
    "path": "/",
    "sameSite": "unspecified",
    "secure": false,
    "session": true,
    "storeId": "0",
    "value": "396651417.20480.0000",
    "id": 14
},
{
    "domain": "education.nsw.gov.au",
    "expirationDate": 1579323268.046962,
    "hostOnly": true,
    "httpOnly": false,
    "name": "gefNoticeRibbonCookie",
    "path": "/",
    "sameSite": "unspecified",
    "secure": false,
    "session": false,
    "storeId": "0",
    "value": "true",
    "id": 15
},
{
    "domain": "education.nsw.gov.au",
    "hostOnly": true,
    "httpOnly": true,
    "name": "SQ_SYSTEM_SESSION",
    "path": "/",
    "sameSite": "unspecified",
    "secure": false,
    "session": true,
    "storeId": "0",
    "value": "u7ef11pv77ag48cqemm0eevotf0mefb89pr6qqqt0aah3iblf29vcg8eksjtgahafedh5df6lvocqbtigd6i7k4d4ojj40u09sripn2",
    "id": 16
}
]