{  
   "$schema":"http://json-schema.org/draft-06/schema#",
   "type":"object",
   "properties":{  
      "title":"Minister announces something important",
      "news category":"General news",
      "news published date":"1 March 2018",
      "news summary":"<p>150 character summary goes here<\/p>",
      "news thumbnail image":"/s3/buckets/edu-datamigration-poc-news/News/Images/EdWk.NewsHub.1200x900.jpg",
      "news content":"<p class=\"caption\">caption text here<br \/>Credit: photographer<\/p><p>body goes here<\/p>",
      "news contact name":"^json_encode%",
      "news contact phone":"^json_encode%",
      "news contact email":"^json_encode%",
      "news show headline Y/N":"1",
      "news show summary Y/N":"1",
      "news show body Y/N":"1",
      "news show contact name Y/N":"1",
      "news show contact phone Y/N":"1",
      "news show contact email Y/N":"null",
      "Name of new item linked to URL":"<a href=\"https:\/\/pre.education.nsw.gov.au\/news\/general-news2\/minister-announces-something-important\">Minister announces something important<\/a>",
      "URL of news item linked":"link_url^json_encode%",
      "news last updated date":"1 March 2018",
      "metadata properties":{  
         "DCTERMS title":"Minister announces something important | News",
         "DCTERMS subject":"News - \r\nNSW Department of Education",
         "DCTERMS publisher":"scheme=AGLSTERMS.AglsAgent ; corporateName=NSW Department of Education: News",
         "DCTERMS contact":"NSW Department of Education: News",
         "DCTERMS format":"html\/text",
         "DCTERMS rights":"\u00a9 Copyright News",
         "DCTERMS identifier":"null",
         "DCTERMS coverage":"Australia",
         "AGLSTERMS availability":"",
         "AGLSTERMS accessibility":"W3C",
         "DCTERMS type":"HTML",
         "DCTERMS audience":"All",
         "DCTERMS contenttype":"",
         "title":"Minister announces something important | News",
         "description":"150 character summary text",
         "keywords":"minister, important, announcement",
         "DCTERMS date created":"1 January 2015",
         "robots":"all",
         "News featured item":"no",
         "AGLSTERMS protectiveMarking":"Unclassified",
         "security public":"yes"
      }
   }
}