https://pre.education.nsw.gov.au/news/media-releases2/start-planning-for-education-week-2018?SQ_DESIGN_NAME=json&amp;SQ_PAINT_LAYOUT_NAME=json
https://pre.education.nsw.gov.au/news/media-releases2/headline-goes-here?SQ_DESIGN_NAME=json&amp;SQ_PAINT_LAYOUT_NAME=json
https://pre.education.nsw.gov.au/news/media-releases2/example-item-2?SQ_DESIGN_NAME=json&amp;SQ_PAINT_LAYOUT_NAME=json
https://pre.education.nsw.gov.au/news/media-releases2/chris-media?SQ_DESIGN_NAME=json&amp;SQ_PAINT_LAYOUT_NAME=json
https://pre.education.nsw.gov.au/news/media-releases2/chris-media-release?SQ_DESIGN_NAME=json&amp;SQ_PAINT_LAYOUT_NAME=json
https://pre.education.nsw.gov.au/news/media-releases2/first-look-at-major-upgrade-for-byron-bay-public-school?SQ_DESIGN_NAME=json&amp;SQ_PAINT_LAYOUT_NAME=json
https://pre.education.nsw.gov.au/news/media-releases2/awards-celebrate-excellence-in-public-schools?SQ_DESIGN_NAME=json&amp;SQ_PAINT_LAYOUT_NAME=json
https://pre.education.nsw.gov.au/news/media-releases2/example-item-1?SQ_DESIGN_NAME=json&amp;SQ_PAINT_LAYOUT_NAME=json
https://pre.education.nsw.gov.au/news/media-releases2/minister-wears-a-funny-hat?SQ_DESIGN_NAME=json&amp;SQ_PAINT_LAYOUT_NAME=json
https://pre.education.nsw.gov.au/news/general-news2/healthy-school-canteens?SQ_DESIGN_NAME=json&amp;SQ_PAINT_LAYOUT_NAME=json
https://pre.education.nsw.gov.au/news/general-news2/minister-announces-something-important?SQ_DESIGN_NAME=json&amp;SQ_PAINT_LAYOUT_NAME=json
https://pre.education.nsw.gov.au/news/general-news2/chris-news-item-1?SQ_DESIGN_NAME=json&amp;SQ_PAINT_LAYOUT_NAME=json
https://pre.education.nsw.gov.au/news/general-news2/nsw-teachers-retracing-steps-of-the-anzacs?SQ_DESIGN_NAME=json&amp;SQ_PAINT_LAYOUT_NAME=json
https://pre.education.nsw.gov.au/news/general-news2/minister-announces-new-fangled-lollipop-men?SQ_DESIGN_NAME=json&amp;SQ_PAINT_LAYOUT_NAME=json
https://pre.education.nsw.gov.au/news/general-news2/artexpress-2018-kate?SQ_DESIGN_NAME=json&amp;SQ_PAINT_LAYOUT_NAME=json
https://pre.education.nsw.gov.au/news/general-news2/aboriginal-education-showcase?SQ_DESIGN_NAME=json&amp;SQ_PAINT_LAYOUT_NAME=json
https://pre.education.nsw.gov.au/news/general-news2/getting-ready-for-school-liam?SQ_DESIGN_NAME=json&amp;SQ_PAINT_LAYOUT_NAME=json
https://pre.education.nsw.gov.au/news/secretaries-update/the-first-languages-of-nsw?SQ_DESIGN_NAME=json&amp;SQ_PAINT_LAYOUT_NAME=json
https://pre.education.nsw.gov.au/news/secretaries-update/public-education-pride?SQ_DESIGN_NAME=json&amp;SQ_PAINT_LAYOUT_NAME=json
https://pre.education.nsw.gov.au/news/secretaries-update/shy-pre-test-1?SQ_DESIGN_NAME=json&amp;SQ_PAINT_LAYOUT_NAME=json
https://pre.education.nsw.gov.au/news/secretaries-update/test-category?SQ_DESIGN_NAME=json&amp;SQ_PAINT_LAYOUT_NAME=json
https://pre.education.nsw.gov.au/news/secretaries-update/this-is-a-long-title-to-break-the-news-feature?SQ_DESIGN_NAME=json&amp;SQ_PAINT_LAYOUT_NAME=json
https://pre.education.nsw.gov.au/news/announcements2/top-dancers-put-their-best-foot-forward-dani?SQ_DESIGN_NAME=json&amp;SQ_PAINT_LAYOUT_NAME=json
https://pre.education.nsw.gov.au/news/announcements2/chris-announcement?SQ_DESIGN_NAME=json&amp;SQ_PAINT_LAYOUT_NAME=json
https://pre.education.nsw.gov.au/news/announcements2/anniversary-of-apology-to-the-stolen-generations?SQ_DESIGN_NAME=json&amp;SQ_PAINT_LAYOUT_NAME=json
https://pre.education.nsw.gov.au/news/announcements2/change-to-student-enrolment-form?SQ_DESIGN_NAME=json&amp;SQ_PAINT_LAYOUT_NAME=json
