{  
   "$schema":"http://json-schema.org/draft-06/schema#",
   "type":"object",
   "properties":{  
      "title":"Chris media",
      "news category":"Media releases",
      "news published date":"15 January 2018",
      "news summary":"<p>This is the summary<\/p>",
      "news thumbnail image":"/s3/buckets/edu-datamigration-poc-news/News/Images/EdWk.NewsHub.1200x900.jpg",
      "news content":"<p>Body<\/p>",
      "news contact name":"null",
      "news contact phone":"null",
      "news contact email":"null",
      "news show headline Y/N":"1",
      "news show summary Y/N":"1",
      "news show body Y/N":"1",
      "news show contact name Y/N":"1",
      "news show contact phone Y/N":"1",
      "news show contact email Y/N":"null",
      "news item linked internally":"<a href=\"https:\/\/pre.education.nsw.gov.au\/news\/media-releases2\/chris-media\">Chris media<\/a>",
      "news item linked through direct url":"",
      "news last updated date":"1 January 2015",
      "metadata properties":{  
         "DCTERMS title":"Chris media | News",
         "DCTERMS subject":"News - \r\nNSW Department of Education",
         "DCTERMS publisher":"scheme=AGLSTERMS.AglsAgent ; corporateName=NSW Department of Education: News",
         "DCTERMS contact":"NSW Department of Education: News",
         "DCTERMS format":"html\/text",
         "DCTERMS rights":"\u00a9 Copyright News",
         "DCTERMS identifier":"null",
         "DCTERMS coverage":"Australia",
         "AGLSTERMS availability":"",
         "AGLSTERMS accessibility":"W3C",
         "DCTERMS type":"HTML",
         "DCTERMS audience":"All",
         "DCTERMS contenttype":"",
         "title":"Chris media | News",
         "description":"Please update the page description via Settings > Template - Page > Page description",
         "keywords":"",
         "DCTERMS date created":"1 January 2015",
         "robots":"all",
         "News featured item":"no",
         "AGLSTERMS protectiveMarking":"Unclassified",
         "security public":"yes"
      }
   }
}