{  
   "$schema":"http://json-schema.org/draft-06/schema#",
   "type":"object",
   "properties":{  
      "title":"First look at major upgrade for Byron Bay Public School",
      "news category":"General news",
      "news published date":"27 October 2017",
      "news summary":"<p>The Byron Bay Public School community got its first look today at how its proposed major upgrade will look with a new flythrough animation.<\/p>",
      "news thumbnail image":"/s3/buckets/edu-datamigration-poc-news/News/Images/180228-danceworkshop2.jpg",
      "news content":"<p>The Byron Bay Public School community got its first look today at how its proposed major upgrade will look with a new flythrough animation to coincide with celebrations for the school's 125th anniversary.<\/p><p>Education Minister Rob Stokes said he was delighted the school was benefitting from the NSW Government's education infrastructure program as it celebrated its long history.<\/p><p>\"It is very fitting that as the school prepares for such a significant upgrade, it is also about to celebrate such a significant milestone,\" Mr Stokes said.<\/p><p>\"There is a very strong thread of excellence in public education running through years at Byron Bay,\" he said.<\/p><p>\"The design will be exhibited as part of the development application process, which will begin shortly.\"<\/p><p>The school is celebrating its 125th anniversary today and tomorrow with reunions, a walk and procession from Apex Park to the school, displays, and an official ceremony at 11.30am tomorrow.<\/p><p>Parliamentary Secretary for Northern NSW Ben Franklin said the upgrade would replace demountable classrooms and position the school for future learning.<\/p><p>\"The design includes 10 future-focused learning spaces and outdoor, undercover learning areas as well,\" Mr Franklin said.<\/p><p>The project is one of more than 120 new and upgraded schools funded under a $4.2 billion package over four years announced as part of the 2017-18 NSW Budget.<\/p><p>Mr Stokes visited the school last week after releasing further details of the $50 million new Ballina Coast High School and other North Coast school upgrades.<\/p>",
      "news contact name":"null",
      "news contact phone":"null",
      "news contact email":"null",
      "news show headline Y/N":"1",
      "news show summary Y/N":"1",
      "news show body Y/N":"1",
      "news show contact name Y/N":"1",
      "news show contact phone Y/N":"1",
      "news show contact email Y/N":"null",
      "news item linked internally":"<a href=\"https:\/\/pre.education.nsw.gov.au\/news\/media-releases2\/first-look-at-major-upgrade-for-byron-bay-public-school\">First look at major upgrade for Byron Bay Public School<\/a>",
      "news item linked through direct url":"",
      "news last updated date":"21 November 2017",
      "metadata properties":{  
         "DCTERMS title":"First look at major upgrade for Byron Bay Public School | News",
         "DCTERMS subject":"News - \r\nNSW Department of Education",
         "DCTERMS publisher":"scheme=AGLSTERMS.AglsAgent ; corporateName=NSW Department of Education: News",
         "DCTERMS contact":"NSW Department of Education: News",
         "DCTERMS format":"html\/text",
         "DCTERMS rights":"\u00a9 Copyright News",
         "DCTERMS identifier":"null",
         "DCTERMS coverage":"Australia",
         "AGLSTERMS availability":"",
         "AGLSTERMS accessibility":"W3C",
         "DCTERMS type":"HTML",
         "DCTERMS audience":"All",
         "DCTERMS contenttype":"",
         "title":"First look at major upgrade for Byron Bay Public School | News",
         "description":"Please update the page description via Settings > Template - Page > Page description",
         "keywords":"",
         "DCTERMS date created":"1 January 2015",
         "robots":"all",
         "News featured item":"yes",
         "AGLSTERMS protectiveMarking":"Unclassified",
         "security public":"yes"
      }
   }
}